{"origin":"https://www.worlddata.info/average-bodyheight.php","data":[
{"drzava":"Afghanistan","moski":{"visina":1.65,"teza":61.5,"bmi":22.6},"zenske":{"visina":1.56,"teza":58.4,"bmi":24.0}},
{"drzava":"Albania","moski":{"visina":1.74,"teza":81.7,"bmi":27.0},"zenske":{"visina":1.62,"teza":69.3,"bmi":26.4}},
{"drzava":"Algeria","moski":{"visina":1.71,"teza":72.2,"bmi":24.7},"zenske":{"visina":1.59,"teza":67.0,"bmi":26.5}},
{"drzava":"American Samoa","moski":{"visina":1.76,"teza":102.5,"bmi":33.1},"zenske":{"visina":1.65,"teza":95.8,"bmi":35.2}},
{"drzava":"Argentina","moski":{"visina":1.74,"teza":84.5,"bmi":27.9},"zenske":{"visina":1.59,"teza":69.8,"bmi":27.6}},
{"drzava":"Australia","moski":{"visina":1.79,"teza":88.8,"bmi":27.7},"zenske":{"visina":1.65,"teza":73.0,"bmi":26.8}},
{"drzava":"Austria","moski":{"visina":1.78,"teza":84.3,"bmi":26.6},"zenske":{"visina":1.65,"teza":67.2,"bmi":24.7}},
{"drzava":"Bangladesh","moski":{"visina":1.64,"teza":57.3,"bmi":21.3},"zenske":{"visina":1.51,"teza":49.7,"bmi":21.8}},
{"drzava":"Barbados","moski":{"visina":1.76,"teza":81.8,"bmi":26.4},"zenske":{"visina":1.65,"teza":79.8,"bmi":29.3}},
{"drzava":"Belarus","moski":{"visina":1.78,"teza":84.0,"bmi":26.5},"zenske":{"visina":1.66,"teza":74.1,"bmi":26.9}},
{"drzava":"Belgium","moski":{"visina":1.81,"teza":87.8,"bmi":26.8},"zenske":{"visina":1.65,"teza":70.0,"bmi":25.7}},
{"drzava":"Belize","moski":{"visina":1.69,"teza":78.5,"bmi":27.5},"zenske":{"visina":1.57,"teza":75.4,"bmi":30.6}},
{"drzava":"Bermuda","moski":{"visina":1.73,"teza":82.6,"bmi":27.6},"zenske":{"visina":1.61,"teza":75.9,"bmi":29.3}},
{"drzava":"Bolivia","moski":{"visina":1.67,"teza":70.6,"bmi":25.3},"zenske":{"visina":1.53,"teza":64.8,"bmi":27.7}},
{"drzava":"Bosnia and Herzegovina","moski":{"visina":1.81,"teza":86.5,"bmi":26.4},"zenske":{"visina":1.67,"teza":70.6,"bmi":25.3}},
{"drzava":"Brazil","moski":{"visina":1.73,"teza":78.7,"bmi":26.3},"zenske":{"visina":1.60,"teza":68.6,"bmi":26.8}},
{"drzava":"Bulgaria","moski":{"visina":1.78,"teza":86.2,"bmi":27.2},"zenske":{"visina":1.65,"teza":70.5,"bmi":25.9}},
{"drzava":"Burma","moski":{"visina":1.65,"teza":60.4,"bmi":22.2},"zenske":{"visina":1.54,"teza":54.5,"bmi":23.0}},
{"drzava":"Burundi","moski":{"visina":1.68,"teza":61.5,"bmi":21.8},"zenske":{"visina":1.55,"teza":51.7,"bmi":21.5}},
{"drzava":"Cambodia","moski":{"visina":1.63,"teza":58.5,"bmi":22.0},"zenske":{"visina":1.53,"teza":52.0,"bmi":22.2}},
{"drzava":"Canada","moski":{"visina":1.78,"teza":86.8,"bmi":27.4},"zenske":{"visina":1.64,"teza":71.8,"bmi":26.7}},
{"drzava":"Chad","moski":{"visina":1.72,"teza":65.1,"bmi":22.0},"zenske":{"visina":1.61,"teza":56.8,"bmi":21.9}},
{"drzava":"Chile","moski":{"visina":1.71,"teza":81.3,"bmi":27.8},"zenske":{"visina":1.59,"teza":71.3,"bmi":28.2}},
{"drzava":"China","moski":{"visina":1.71,"teza":70.5,"bmi":24.1},"zenske":{"visina":1.59,"teza":59.4,"bmi":23.5}},
{"drzava":"Colombia","moski":{"visina":1.69,"teza":73.7,"bmi":25.8},"zenske":{"visina":1.56,"teza":65.0,"bmi":26.7}},
{"drzava":"Congo (Dem. Republic)","moski":{"visina":1.68,"teza":60.4,"bmi":21.4},"zenske":{"visina":1.56,"teza":55.0,"bmi":22.6}},
{"drzava":"Cook Islands","moski":{"visina":1.75,"teza":100.1,"bmi":32.7},"zenske":{"visina":1.64,"teza":89.6,"bmi":33.3}},
{"drzava":"Costa Rica","moski":{"visina":1.69,"teza":76.5,"bmi":26.8},"zenske":{"visina":1.56,"teza":68.1,"bmi":28.0}},
{"drzava":"Croatia","moski":{"visina":1.80,"teza":90.7,"bmi":28.0},"zenske":{"visina":1.66,"teza":74.1,"bmi":26.9}},
{"drzava":"Cuba","moski":{"visina":1.72,"teza":74.8,"bmi":25.3},"zenske":{"visina":1.59,"teza":66.0,"bmi":26.1}},
{"drzava":"Czechia","moski":{"visina":1.80,"teza":91.0,"bmi":28.1},"zenske":{"visina":1.68,"teza":74.5,"bmi":26.4}},
{"drzava":"Denmark","moski":{"visina":1.81,"teza":86.2,"bmi":26.3},"zenske":{"visina":1.68,"teza":69.4,"bmi":24.6}},
{"drzava":"Ecuador","moski":{"visina":1.67,"teza":74.2,"bmi":26.6},"zenske":{"visina":1.54,"teza":66.2,"bmi":27.9}},
{"drzava":"Egypt","moski":{"visina":1.69,"teza":79.4,"bmi":27.8},"zenske":{"visina":1.58,"teza":78.4,"bmi":31.4}},
{"drzava":"Equatorial Guinea","moski":{"visina":1.69,"teza":63.7,"bmi":22.3},"zenske":{"visina":1.58,"teza":64.4,"bmi":25.8}},
{"drzava":"Eritrea","moski":{"visina":1.69,"teza":58.0,"bmi":20.3},"zenske":{"visina":1.57,"teza":52.0,"bmi":21.1}},
{"drzava":"Estonia","moski":{"visina":1.81,"teza":88.5,"bmi":27.0},"zenske":{"visina":1.68,"teza":73.4,"bmi":26.0}},
{"drzava":"Ethiopia","moski":{"visina":1.68,"teza":56.7,"bmi":20.1},"zenske":{"visina":1.56,"teza":51.1,"bmi":21.0}},
{"drzava":"Finland","moski":{"visina":1.80,"teza":86.2,"bmi":26.6},"zenske":{"visina":1.66,"teza":70.8,"bmi":25.7}},
{"drzava":"France","moski":{"visina":1.79,"teza":83.3,"bmi":26.0},"zenske":{"visina":1.65,"teza":66.4,"bmi":24.4}},
{"drzava":"French Polynesia","moski":{"visina":1.77,"teza":92.7,"bmi":29.6},"zenske":{"visina":1.65,"teza":80.3,"bmi":29.5}},
{"drzava":"Georgia","moski":{"visina":1.75,"teza":84.2,"bmi":27.5},"zenske":{"visina":1.63,"teza":73.6,"bmi":27.7}},
{"drzava":"Germany","moski":{"visina":1.80,"teza":88.8,"bmi":27.4},"zenske":{"visina":1.66,"teza":71.6,"bmi":26.0}},
{"drzava":"Ghana","moski":{"visina":1.70,"teza":65.3,"bmi":22.6},"zenske":{"visina":1.59,"teza":63.7,"bmi":25.2}},
{"drzava":"Greece","moski":{"visina":1.77,"teza":86.5,"bmi":27.6},"zenske":{"visina":1.64,"teza":72.4,"bmi":26.9}},
{"drzava":"Grenada","moski":{"visina":1.77,"teza":78.6,"bmi":25.1},"zenske":{"visina":1.65,"teza":78.4,"bmi":28.8}},
{"drzava":"Hong Kong","moski":{"visina":1.72,"teza":72.5,"bmi":24.5},"zenske":{"visina":1.58,"teza":59.4,"bmi":23.8}},
{"drzava":"Hungary","moski":{"visina":1.77,"teza":88.3,"bmi":28.2},"zenske":{"visina":1.64,"teza":71.5,"bmi":26.6}},
{"drzava":"Iceland","moski":{"visina":1.81,"teza":88.8,"bmi":27.1},"zenske":{"visina":1.67,"teza":71.4,"bmi":25.6}},
{"drzava":"India","moski":{"visina":1.65,"teza":59.1,"bmi":21.7},"zenske":{"visina":1.52,"teza":50.6,"bmi":21.9}},
{"drzava":"Indonesia","moski":{"visina":1.63,"teza":59.5,"bmi":22.4},"zenske":{"visina":1.52,"teza":54.8,"bmi":23.7}},
{"drzava":"Iran","moski":{"visina":1.73,"teza":75.7,"bmi":25.3},"zenske":{"visina":1.59,"teza":68.8,"bmi":27.2}},
{"drzava":"Ireland","moski":{"visina":1.78,"teza":88.7,"bmi":28.0},"zenske":{"visina":1.65,"teza":73.8,"bmi":27.1}},
{"drzava":"Israel","moski":{"visina":1.77,"teza":86.8,"bmi":27.7},"zenske":{"visina":1.62,"teza":71.1,"bmi":27.1}},
{"drzava":"Italy","moski":{"visina":1.77,"teza":83.6,"bmi":26.7},"zenske":{"visina":1.64,"teza":67.0,"bmi":24.9}},
{"drzava":"Ivory Coast","moski":{"visina":1.68,"teza":66.0,"bmi":23.4},"zenske":{"visina":1.59,"teza":61.2,"bmi":24.2}},
{"drzava":"Jamaica","moski":{"visina":1.75,"teza":79.0,"bmi":25.8},"zenske":{"visina":1.63,"teza":78.6,"bmi":29.6}},
{"drzava":"Japan","moski":{"visina":1.71,"teza":69.0,"bmi":23.6},"zenske":{"visina":1.58,"teza":54.7,"bmi":21.9}},
{"drzava":"Jordan","moski":{"visina":1.72,"teza":83.7,"bmi":28.3},"zenske":{"visina":1.59,"teza":75.8,"bmi":30.0}},
{"drzava":"Kazakhstan","moski":{"visina":1.72,"teza":77.8,"bmi":26.3},"zenske":{"visina":1.60,"teza":68.1,"bmi":26.6}},
{"drzava":"Kenya","moski":{"visina":1.71,"teza":64.9,"bmi":22.2},"zenske":{"visina":1.59,"teza":61.7,"bmi":24.4}},
{"drzava":"Kiribati","moski":{"visina":1.70,"teza":84.1,"bmi":29.1},"zenske":{"visina":1.58,"teza":77.6,"bmi":31.1}},
{"drzava":"Kuwait","moski":{"visina":1.72,"teza":85.8,"bmi":29.0},"zenske":{"visina":1.60,"teza":78.3,"bmi":30.6}},
{"drzava":"Laos","moski":{"visina":1.60,"teza":57.9,"bmi":22.6},"zenske":{"visina":1.51,"teza":52.4,"bmi":23.0}},
{"drzava":"Latvia","moski":{"visina":1.81,"teza":88.8,"bmi":27.1},"zenske":{"visina":1.69,"teza":75.4,"bmi":26.4}},
{"drzava":"Lithuania","moski":{"visina":1.79,"teza":86.8,"bmi":27.1},"zenske":{"visina":1.66,"teza":71.9,"bmi":26.1}},
{"drzava":"Luxembourg","moski":{"visina":1.78,"teza":86.2,"bmi":27.2},"zenske":{"visina":1.65,"teza":70.0,"bmi":25.7}},
{"drzava":"Macedonia","moski":{"visina":1.78,"teza":86.5,"bmi":27.3},"zenske":{"visina":1.60,"teza":67.3,"bmi":26.3}},
{"drzava":"Madagascar","moski":{"visina":1.63,"teza":57.1,"bmi":21.5},"zenske":{"visina":1.52,"teza":48.7,"bmi":21.1}},
{"drzava":"Malaysia","moski":{"visina":1.68,"teza":71.1,"bmi":25.2},"zenske":{"visina":1.56,"teza":63.5,"bmi":26.1}},
{"drzava":"Mali","moski":{"visina":1.72,"teza":67.7,"bmi":22.9},"zenske":{"visina":1.61,"teza":59.9,"bmi":23.1}},
{"drzava":"Marshall Islands","moski":{"visina":1.64,"teza":78.0,"bmi":29.0},"zenske":{"visina":1.52,"teza":70.7,"bmi":30.6}},
{"drzava":"Mauritius","moski":{"visina":1.71,"teza":71.9,"bmi":24.6},"zenske":{"visina":1.57,"teza":64.1,"bmi":26.0}},
{"drzava":"Mexico","moski":{"visina":1.68,"teza":77.6,"bmi":27.5},"zenske":{"visina":1.56,"teza":69.4,"bmi":28.5}},
{"drzava":"Micronesia","moski":{"visina":1.69,"teza":80.8,"bmi":28.3},"zenske":{"visina":1.57,"teza":77.4,"bmi":31.4}},
{"drzava":"Moldova","moski":{"visina":1.75,"teza":81.5,"bmi":26.6},"zenske":{"visina":1.63,"teza":73.1,"bmi":27.5}},
{"drzava":"Mongolia","moski":{"visina":1.69,"teza":73.7,"bmi":25.8},"zenske":{"visina":1.58,"teza":66.4,"bmi":26.6}},
{"drzava":"Montenegro","moski":{"visina":1.78,"teza":85.5,"bmi":27.0},"zenske":{"visina":1.65,"teza":71.3,"bmi":26.2}},
{"drzava":"Morocco","moski":{"visina":1.71,"teza":74.3,"bmi":25.4},"zenske":{"visina":1.58,"teza":66.4,"bmi":26.6}},
{"drzava":"Mozambique","moski":{"visina":1.66,"teza":60.6,"bmi":22.0},"zenske":{"visina":1.55,"teza":56.2,"bmi":23.4}},
{"drzava":"Namibia","moski":{"visina":1.69,"teza":65.4,"bmi":22.9},"zenske":{"visina":1.60,"teza":65.0,"bmi":25.4}},
{"drzava":"Nauru","moski":{"visina":1.68,"teza":91.4,"bmi":32.4},"zenske":{"visina":1.55,"teza":79.5,"bmi":33.1}},
{"drzava":"Nepal","moski":{"visina":1.62,"teza":59.0,"bmi":22.5},"zenske":{"visina":1.51,"teza":50.8,"bmi":22.3}},
{"drzava":"Netherlands","moski":{"visina":1.83,"teza":87.4,"bmi":26.1},"zenske":{"visina":1.69,"teza":72.3,"bmi":25.3}},
{"drzava":"New Zealand","moski":{"visina":1.78,"teza":89.3,"bmi":28.2},"zenske":{"visina":1.65,"teza":76.2,"bmi":28.0}},
{"drzava":"Nigeria","moski":{"visina":1.67,"teza":63.0,"bmi":22.6},"zenske":{"visina":1.58,"teza":59.9,"bmi":24.0}},
{"drzava":"Niue","moski":{"visina":1.76,"teza":97.6,"bmi":31.5},"zenske":{"visina":1.64,"teza":89.8,"bmi":33.4}},
{"drzava":"North Korea","moski":{"visina":1.71,"teza":70.8,"bmi":24.2},"zenske":{"visina":1.58,"teza":59.9,"bmi":24.0}},
{"drzava":"Norway","moski":{"visina":1.80,"teza":88.8,"bmi":27.4},"zenske":{"visina":1.66,"teza":72.2,"bmi":26.2}},
{"drzava":"Pakistan","moski":{"visina":1.67,"teza":65.0,"bmi":23.3},"zenske":{"visina":1.54,"teza":58.6,"bmi":24.7}},
{"drzava":"Palau","moski":{"visina":1.68,"teza":83.5,"bmi":29.6},"zenske":{"visina":1.57,"teza":73.2,"bmi":29.7}},
{"drzava":"Peru","moski":{"visina":1.65,"teza":71.3,"bmi":26.2},"zenske":{"visina":1.53,"teza":63.4,"bmi":27.1}},
{"drzava":"Philippines","moski":{"visina":1.63,"teza":60.6,"bmi":22.8},"zenske":{"visina":1.49,"teza":52.2,"bmi":23.5}},
{"drzava":"Poland","moski":{"visina":1.77,"teza":85.8,"bmi":27.4},"zenske":{"visina":1.64,"teza":70.2,"bmi":26.1}},
{"drzava":"Portugal","moski":{"visina":1.73,"teza":78.7,"bmi":26.3},"zenske":{"visina":1.63,"teza":67.5,"bmi":25.4}},
{"drzava":"Qatar","moski":{"visina":1.71,"teza":84.2,"bmi":28.8},"zenske":{"visina":1.60,"teza":77.3,"bmi":30.2}},
{"drzava":"Romania","moski":{"visina":1.75,"teza":83.0,"bmi":27.1},"zenske":{"visina":1.63,"teza":71.2,"bmi":26.8}},
{"drzava":"Russia","moski":{"visina":1.76,"teza":80.2,"bmi":25.9},"zenske":{"visina":1.65,"teza":72.7,"bmi":26.7}},
{"drzava":"Saint Kitts and Nevis","moski":{"visina":1.70,"teza":81.5,"bmi":28.2},"zenske":{"visina":1.60,"teza":78.6,"bmi":30.7}},
{"drzava":"Saint Lucia","moski":{"visina":1.72,"teza":87.3,"bmi":29.5},"zenske":{"visina":1.63,"teza":80.5,"bmi":30.3}},
{"drzava":"Samoa","moski":{"visina":1.74,"teza":92.3,"bmi":30.5},"zenske":{"visina":1.62,"teza":89.5,"bmi":34.1}},
{"drzava":"Saudi Arabia","moski":{"visina":1.68,"teza":79.0,"bmi":28.0},"zenske":{"visina":1.56,"teza":71.5,"bmi":29.4}},
{"drzava":"Serbia","moski":{"visina":1.81,"teza":87.5,"bmi":26.7},"zenske":{"visina":1.67,"teza":71.7,"bmi":25.7}},
{"drzava":"Singapore","moski":{"visina":1.72,"teza":71.9,"bmi":24.3},"zenske":{"visina":1.60,"teza":59.4,"bmi":23.2}},
{"drzava":"Slovakia","moski":{"visina":1.79,"teza":87.8,"bmi":27.4},"zenske":{"visina":1.67,"teza":71.4,"bmi":25.6}},
{"drzava":"Slovenia","moski":{"visina":1.80,"teza":86.2,"bmi":26.6},"zenske":{"visina":1.66,"teza":73.3,"bmi":26.6}},
{"drzava":"South Africa","moski":{"visina":1.68,"teza":70.8,"bmi":25.1},"zenske":{"visina":1.59,"teza":74.6,"bmi":29.5}},
{"drzava":"South Korea","moski":{"visina":1.74,"teza":73.9,"bmi":24.4},"zenske":{"visina":1.62,"teza":60.6,"bmi":23.1}},
{"drzava":"Spain","moski":{"visina":1.76,"teza":84.3,"bmi":27.2},"zenske":{"visina":1.63,"teza":66.7,"bmi":25.1}},
{"drzava":"Sri Lanka","moski":{"visina":1.65,"teza":61.3,"bmi":22.5},"zenske":{"visina":1.54,"teza":56.2,"bmi":23.7}},
{"drzava":"Sudan","moski":{"visina":1.68,"teza":65.5,"bmi":23.2},"zenske":{"visina":1.57,"teza":64.1,"bmi":26.0}},
{"drzava":"Sweden","moski":{"visina":1.80,"teza":86.8,"bmi":26.8},"zenske":{"visina":1.66,"teza":70.0,"bmi":25.4}},
{"drzava":"Switzerland","moski":{"visina":1.78,"teza":84.9,"bmi":26.8},"zenske":{"visina":1.64,"teza":64.0,"bmi":23.8}},
{"drzava":"Syria","moski":{"visina":1.71,"teza":80.1,"bmi":27.4},"zenske":{"visina":1.59,"teza":74.1,"bmi":29.3}},
{"drzava":"Taiwan","moski":{"visina":1.73,"teza":74.8,"bmi":25.0},"zenske":{"visina":1.60,"teza":60.7,"bmi":23.7}},
{"drzava":"Tanzania","moski":{"visina":1.66,"teza":61.7,"bmi":22.4},"zenske":{"visina":1.56,"teza":58.4,"bmi":24.0}},
{"drzava":"Thailand","moski":{"visina":1.68,"teza":67.2,"bmi":23.8},"zenske":{"visina":1.56,"teza":60.8,"bmi":25.0}},
{"drzava":"Timor-Leste","moski":{"visina":1.60,"teza":54.3,"bmi":21.2},"zenske":{"visina":1.51,"teza":48.3,"bmi":21.2}},
{"drzava":"Tokelau","moski":{"visina":1.75,"teza":98.0,"bmi":32.0},"zenske":{"visina":1.63,"teza":89.5,"bmi":33.7}},
{"drzava":"Tonga","moski":{"visina":1.77,"teza":96.2,"bmi":30.7},"zenske":{"visina":1.66,"teza":93.4,"bmi":33.9}},
{"drzava":"Turkey","moski":{"visina":1.74,"teza":82.4,"bmi":27.2},"zenske":{"visina":1.60,"teza":73.7,"bmi":28.8}},
{"drzava":"Tuvalu","moski":{"visina":1.70,"teza":87.0,"bmi":30.1},"zenske":{"visina":1.59,"teza":80.4,"bmi":31.8}},
{"drzava":"Ukraine","moski":{"visina":1.78,"teza":85.5,"bmi":27.0},"zenske":{"visina":1.66,"teza":72.7,"bmi":26.4}},
{"drzava":"United Arab Emirates","moski":{"visina":1.71,"teza":82.2,"bmi":28.1},"zenske":{"visina":1.59,"teza":74.6,"bmi":29.5}},
{"drzava":"United Kingdom","moski":{"visina":1.78,"teza":86.8,"bmi":27.4},"zenske":{"visina":1.64,"teza":72.9,"bmi":27.1}},
{"drzava":"United States","moski":{"visina":1.77,"teza":90.9,"bmi":29.0},"zenske":{"visina":1.64,"teza":78.0,"bmi":29.0}},
{"drzava":"Venezuela","moski":{"visina":1.71,"teza":78.1,"bmi":26.7},"zenske":{"visina":1.57,"teza":66.3,"bmi":26.9}},
{"drzava":"Vietnam","moski":{"visina":1.64,"teza":58.4,"bmi":21.7},"zenske":{"visina":1.53,"teza":50.8,"bmi":21.7}},
{"drzava":"Yemen","moski":{"visina":1.62,"teza":61.9,"bmi":23.6},"zenske":{"visina":1.55,"teza":57.7,"bmi":24.0}}]}